…
prom_df =
  prom_df %>% 
    pivot_longer(-c(registration_id, groups, age, sex, hispanic, individualnumber, familynumber),
                 names_to = c(".value", "visit"), 
                 names_sep = "_") %>% 
    mutate(
      visit = factor(visit),
      visit = recode_factor(visit, `visit1` = "Week 0", `visit2` = "Week 8", `visit3` = "Week 36")
      )

prom_df
```

    ## # A tibble: 291 x 16
    ##    registrati~1 groups   age sex   hispa~2 indiv~3 famil~4 visit anxiety depre~5
    ##    <chr>        <fct>  <dbl> <fct> <fct>   <fct>     <dbl> <fct>   <dbl>   <dbl>
    ##  1 1g2          Group~  44.5 Male  Yes     <NA>         NA Week~    47.9    41  
    ##  2 1g2          Group~  44.5 Male  Yes     <NA>         NA Week~    40.3    41  
    ##  3 1g2          Group~  44.5 Male  Yes     <NA>         NA Week~    40.3    41  
    ##  4 2g3p         Group~  25.4 Male  Yes     <NA>         NA Week~    56.4    51.2
    ##  5 2g3p         Group~  25.4 Male  Yes     <NA>         NA Week~    40.3    41  
    ##  6 2g3p         Group~  25.4 Male  Yes     <NA>         NA Week~    40.3    41  
    ##  7 3g3c         Group~  49.1 Fema~ No      Mother        2 Week~    40.3    49.1
    ##  8 3g3c         Group~  49.1 Fema~ No      Mother        2 Week~    49      56.1
    ##  9 3g3c         Group~  49.1 Fema~ No      Mother        2 Week~    49.2    41  
    ## 10 4g3p         Group~  39.5 Fema~ Yes     <NA>         NA Week~    51.4    41  
    ## # ... with 281 more rows, 6 more variables: fatigue <dbl>,
    ## #   sleepdisturbance <dbl>, abilitytoparticipatesocial <dbl>,
    ## #   paininterference <dbl>, emotionalsupport <dbl>, physicalfunction <dbl>, and
    ## #   abbreviated variable names 1: registration_id, 2: hispanic,
    ## #   3: individualnumber, 4: familynumber, 5: depression
…
