…
    ## [1] 121

``` r
length(mismatch_df$reporting_date.redcap) - length(na.omit(mismatch_df$reporting_date.redcap))
```

    ## [1] 166

121 missing from asa24 and 125 missing from redcap

``` r
mismatch_df
```

    ## # A tibble: 269 x 4
    ## # Groups:   id [63]
    ##       id reporting_date.asa  reporting_date.redcap visit  
    ##    <dbl> <dttm>              <dttm>                <fct>  
    ##  1     1 2020-01-07 00:00:00 NA                    <NA>   
    ##  2     1 2020-01-10 00:00:00 NA                    <NA>   
    ##  3     1 2020-01-12 00:00:00 NA                    <NA>   
    ##  4     1 2020-06-30 00:00:00 NA                    <NA>   
    ##  5     1 NA                  2020-01-06 00:00:00   Week 0 
    ##  6     1 NA                  2020-01-09 00:00:00   Week 0 
    ##  7     1 NA                  2020-01-11 00:00:00   Week 0 
    ##  8     1 NA                  2020-06-02 00:00:00   Week 24
    ##  9     3 2020-01-07 00:00:00 NA                    <NA>   
    ## 10     3 2020-01-10 00:00:00 NA                    <NA>   
    ## # ... with 259 more rows
…
